…
```
## Rows: 51,800
## Columns: 4
## $ Sector       <chr> "Buildings", "Buildings", "Buildings", "Buildings", "Buil…
## $ country_name <chr> "Afghanistan", "Afghanistan", "Afghanistan", "Afghanistan…
## $ co_year      <chr> "1970", "1971", "1972", "1973", "1974", "1975", "1976", "…
## $ co_value     <chr> "0.58", "0.58", "0.46", "0.57", "0.77", "0.59", "0.48", "…
```

```r
co_data_l[, "country_name"]
```

```
## # A tibble: 51,800 × 1
##    country_name
##    <chr>       
##  1 Afghanistan 
##  2 Afghanistan 
##  3 Afghanistan 
##  4 Afghanistan 
##  5 Afghanistan 
##  6 Afghanistan 
##  7 Afghanistan 
##  8 Afghanistan 
##  9 Afghanistan 
## 10 Afghanistan 
## # … with 51,790 more rows
```

```r
select_example <- function(dat, x){
  return(dat[, x])
}

select_example(co_data_l, "country_name")
```

```
## # A tibble: 51,800 × 1
##    country_name
##    <chr>       
##  1 Afghanistan 
##  2 Afghanistan 
##  3 Afghanistan 
##  4 Afghanistan 
##  5 Afghanistan 
##  6 Afghanistan 
##  7 Afghanistan 
##  8 Afghanistan 
##  9 Afghanistan 
## 10 Afghanistan 
## # … with 51,790 more rows
```
…
